[
  {
    "id": "1",
    "name": "Vasya"
  },
  {
    "id": "2",
    "name": "Kolya"
  },
  {
    "id": "3",
    "name": "Petya"
  },
  {
    "id": "4",
    "name": "Gege"
  },
  {
    "id": "5",
    "name": "Baba"
  }
]